This is BibTeX, Version 0.99d (TeX Live 2015/Debian)
Capacity: max_strings=35307, hash_size=35307, hash_prime=30011
The top-level auxiliary file: Literatur_Review.aux
The style file: plain.bst
Database file #1: biblio_lit.bib
I was expecting a `,' or a `}'---line 48 of file biblio_lit.bib
 : 
 : @article {PROT:PROT24343,
(Error may have been on previous line)
I'm skipping whatever remains of this entry
Warning--I didn't find a database entry for "v"
Too many commas in name 1 of "Xuan-Yu Meng, Hong-Xing Zhang, Mihaly Mezei, Meng Cui" for entry xuan
while executing---line 1049 of file plain.bst
Warning--to sort, need author or key in doi:10.4155/fmc.11.63
Warning--empty author in doi:10.4155/fmc.11.63
Too many commas in name 1 of "Xuan-Yu Meng, Hong-Xing Zhang, Mihaly Mezei, Meng Cui" for entry xuan
while executing---line 1090 of file plain.bst
You've used 5 entries,
            2118 wiz_defined-function locations,
            536 strings with 4988 characters,
and the built_in function-call counts, 1709 in all, are:
= -- 167
> -- 77
< -- 0
+ -- 31
- -- 26
* -- 144
:= -- 287
add.period$ -- 15
call.type$ -- 5
change.case$ -- 28
chr.to.int$ -- 0
cite$ -- 7
duplicate$ -- 54
empty$ -- 133
format.name$ -- 26
if$ -- 346
int.to.chr$ -- 0
int.to.str$ -- 5
missing$ -- 5
newline$ -- 28
num.names$ -- 8
pop$ -- 20
preamble$ -- 1
purify$ -- 23
quote$ -- 0
skip$ -- 35
stack$ -- 0
substring$ -- 135
swap$ -- 5
text.length$ -- 0
text.prefix$ -- 0
top$ -- 0
type$ -- 20
warning$ -- 2
while$ -- 14
width$ -- 6
write$ -- 56
(There were 3 error messages)
