\relax 
\citation{PROT:PROT24343}
\citation{xuan}
\citation{xuan}
\citation{Jones1997727}
\citation{xuan}
\citation{xuan}
\citation{doi:10.4155/fmc.11.63}
\citation{Sliwoski334}
\citation{xuan}
\citation{xuan}
\citation{xuan}
\bibstyle{plain}
\bibdata{biblio_lit}
\bibcite{doi:10.4155/fmc.11.63}{1}
\bibcite{Jones1997727}{2}
\bibcite{Sliwoski334}{3}
\bibcite{PROT:PROT24343}{4}
\bibcite{xuan}{5}
